module gitlab.com/panicrx/go-enumerator

go 1.21

require (
	github.com/dave/jennifer v1.7.0
	github.com/spf13/cobra v1.7.0
	github.com/spf13/pflag v1.0.5
	github.com/stoewer/go-strcase v1.3.0
	golang.org/x/tools v0.14.0
)

require (
	github.com/inconshreveable/mousetrap v1.1.0 // indirect
	golang.org/x/mod v0.13.0 // indirect
	golang.org/x/sys v0.13.0 // indirect
)
